…
``` r
flights_1 = flights %>% 
  filter(!is.na(tailnum)) %>% 
  group_by(tailnum,carrier) %>% 
  summarise(n=n()) %>% 
  filter(n>1) %>% 
  print(n=6)
```

    ## `summarise()` has grouped output by 'tailnum'. You can override using the `.groups` argument.

    ## # A tibble: 3,889 x 3
    ## # Groups:   tailnum [3,872]
    ##   tailnum carrier     n
    ##   <chr>   <chr>   <int>
    ## 1 D942DN  DL          4
    ## 2 N0EGMQ  MQ        371
    ## 3 N10156  EV        153
    ## 4 N102UW  US         48
    ## 5 N103US  US         46
    ## 6 N104UW  US         47
    ## # ... with 3,883 more rows
…
#### 3a. Plane’s average speed.

Notice that `flights$air_time` is in minutes. Make a new column that is
the air time in hours.

``` r
flights %>% 
  group_by(air_time) %>% 
  mutate(
    flights_airtime_hours = (air_time/60)) %>% 
  select(flights_airtime_hours,year,month,day, air_time)
```

    ## # A tibble: 336,776 x 5
    ## # Groups:   air_time [510]
    ##    flights_airtime_hours  year month   day air_time
    ##                    <dbl> <int> <int> <int>    <dbl>
    ##  1                 3.78   2013     1     1      227
    ##  2                 3.78   2013     1     1      227
    ##  3                 2.67   2013     1     1      160
    ##  4                 3.05   2013     1     1      183
    ##  5                 1.93   2013     1     1      116
    ##  6                 2.5    2013     1     1      150
    ##  7                 2.63   2013     1     1      158
    ##  8                 0.883  2013     1     1       53
    ##  9                 2.33   2013     1     1      140
    ## 10                 2.3    2013     1     1      138
    ## # ... with 336,766 more rows
…
``` r
flights %>% 
  filter(!is.na(arr_time)) %>% 
  group_by(carrier, dest) %>% 
  summarize(n=n()) %>% 
  pivot_wider(names_from=carrier,values_from=n,values_fill=0)
```

    ## `summarise()` has grouped output by 'carrier'. You can override using the `.groups` argument.

    ## # A tibble: 104 x 17
    ##    dest   `9E`    AA    AS    B6    DL    EV    F9    FL    HA    MQ    OO    UA
    ##    <chr> <int> <int> <int> <int> <int> <int> <int> <int> <int> <int> <int> <int>
    ##  1 ATL      56     0     0     0 10476  1660     0  2284     0  2237     0   102
    ##  2 AUS       2   359     0   744   353     0     0     0     0     0     0   664
    ##  3 AVL      10     0     0     0     0   253     0     0     0     0     0     0
    ##  4 BNA     452     0     0     0     1  2059     0     0     0  2306     0     0
    ##  5 BOS     853  1430     0  4326   962   156     0     0     0     0     0  3299
    ##  6 BTV       2     0     0  1348     0  1162     0     0     0     0     0     0
    ##  7 BUF     790     0     0  2773     3  1005     0     0     0     0     0     0
    ##  8 BWI     816     0     0     0     0   339     0     0     0   333     0     0
    ##  9 CAE       3     0     0     0     0   103     0     0     0     0     0     0
    ## 10 CHS     332     0     0   612     0  1825     0     0     0     0     0     1
    ## # ... with 94 more rows, and 4 more variables: US <int>, VX <int>, WN <int>,
    ## #   YV <int>
